<svg class="lds-spinner" width="124px" height="124px" xmlns="http://www.w3.org/2000/svg" xmlns:xlink="http://www.w3.org/1999/xlink" viewBox="0 0 100 100" preserveAspectRatio="xMidYMid" style="animation-play-state: running; animation-delay: 0s; background: rgba(0, 0, 0, 0) none repeat scroll 0% 0%;"><g transform="rotate(0 50 50)" style="animation-play-state: running; animation-delay: 0s;">
  <rect x="47" y="24" rx="9.4" ry="4.8" width="6" height="12" fill="#a4a9b2" style="animation-play-state: running; animation-delay: 0s;">
    <animate attributeName="opacity" values="1;0" times="0;1" dur="1s" begin="-0.9166666666666666s" repeatCount="indefinite" style="animation-play-state: running; animation-delay: 0s;"></animate>
  </rect>
</g><g transform="rotate(30 50 50)" style="animation-play-state: running; animation-delay: 0s;">
  <rect x="47" y="24" rx="9.4" ry="4.8" width="6" height="12" fill="#a4a9b2" style="animation-play-state: running; animation-delay: 0s;">
    <animate attributeName="opacity" values="1;0" times="0;1" dur="1s" begin="-0.8333333333333334s" repeatCount="indefinite" style="animation-play-state: running; animation-delay: 0s;"></animate>
  </rect>
</g><g transform="rotate(60 50 50)" style="animation-play-state: running; animation-delay: 0s;">
  <rect x="47" y="24" rx="9.4" ry="4.8" width="6" height="12" fill="#a4a9b2" style="animation-play-state: running; animation-delay: 0s;">
    <animate attributeName="opacity" values="1;0" times="0;1" dur="1s" begin="-0.75s" repeatCount="indefinite" style="animation-play-state: running; animation-delay: 0s;"></animate>
  </rect>
</g><g transform="rotate(90 50 50)" style="animation-play-state: running; animation-delay: 0s;">
  <rect x="47" y="24" rx="9.4" ry="4.8" width="6" height="12" fill="#a4a9b2" style="animation-play-state: running; animation-delay: 0s;">
    <animate attributeName="opacity" values="1;0" times="0;1" dur="1s" begin="-0.6666666666666666s" repeatCount="indefinite" style="animation-play-state: running; animation-delay: 0s;"></animate>
  </rect>
</g><g transform="rotate(120 50 50)" style="animation-play-state: running; animation-delay: 0s;">
  <rect x="47" y="24" rx="9.4" ry="4.8" width="6" height="12" fill="#a4a9b2" style="animation-play-state: running; animation-delay: 0s;">
    <animate attributeName="opacity" values="1;0" times="0;1" dur="1s" begin="-0.5833333333333334s" repeatCount="indefinite" style="animation-play-state: running; animation-delay: 0s;"></animate>
  </rect>
</g><g transform="rotate(150 50 50)" style="animation-play-state: running; animation-delay: 0s;">
  <rect x="47" y="24" rx="9.4" ry="4.8" width="6" height="12" fill="#a4a9b2" style="animation-play-state: running; animation-delay: 0s;">
    <animate attributeName="opacity" values="1;0" times="0;1" dur="1s" begin="-0.5s" repeatCount="indefinite" style="animation-play-state: running; animation-delay: 0s;"></animate>
  </rect>
</g><g transform="rotate(180 50 50)" style="animation-play-state: running; animation-delay: 0s;">
  <rect x="47" y="24" rx="9.4" ry="4.8" width="6" height="12" fill="#a4a9b2" style="animation-play-state: running; animation-delay: 0s;">
    <animate attributeName="opacity" values="1;0" times="0;1" dur="1s" begin="-0.4166666666666667s" repeatCount="indefinite" style="animation-play-state: running; animation-delay: 0s;"></animate>
  </rect>
</g><g transform="rotate(210 50 50)" style="animation-play-state: running; animation-delay: 0s;">
  <rect x="47" y="24" rx="9.4" ry="4.8" width="6" height="12" fill="#a4a9b2" style="animation-play-state: running; animation-delay: 0s;">
    <animate attributeName="opacity" values="1;0" times="0;1" dur="1s" begin="-0.3333333333333333s" repeatCount="indefinite" style="animation-play-state: running; animation-delay: 0s;"></animate>
  </rect>
</g><g transform="rotate(240 50 50)" style="animation-play-state: running; animation-delay: 0s;">
  <rect x="47" y="24" rx="9.4" ry="4.8" width="6" height="12" fill="#a4a9b2" style="animation-play-state: running; animation-delay: 0s;">
    <animate attributeName="opacity" values="1;0" times="0;1" dur="1s" begin="-0.25s" repeatCount="indefinite" style="animation-play-state: running; animation-delay: 0s;"></animate>
  </rect>
</g><g transform="rotate(270 50 50)" style="animation-play-state: running; animation-delay: 0s;">
  <rect x="47" y="24" rx="9.4" ry="4.8" width="6" height="12" fill="#a4a9b2" style="animation-play-state: running; animation-delay: 0s;">
    <animate attributeName="opacity" values="1;0" times="0;1" dur="1s" begin="-0.16666666666666666s" repeatCount="indefinite" style="animation-play-state: running; animation-delay: 0s;"></animate>
  </rect>
</g><g transform="rotate(300 50 50)" style="animation-play-state: running; animation-delay: 0s;">
  <rect x="47" y="24" rx="9.4" ry="4.8" width="6" height="12" fill="#a4a9b2" style="animation-play-state: running; animation-delay: 0s;">
    <animate attributeName="opacity" values="1;0" times="0;1" dur="1s" begin="-0.08333333333333333s" repeatCount="indefinite" style="animation-play-state: running; animation-delay: 0s;"></animate>
  </rect>
</g><g transform="rotate(330 50 50)" style="animation-play-state: running; animation-delay: 0s;">
  <rect x="47" y="24" rx="9.4" ry="4.8" width="6" height="12" fill="#a4a9b2" style="animation-play-state: running; animation-delay: 0s;">
    <animate attributeName="opacity" values="1;0" times="0;1" dur="1s" begin="0s" repeatCount="indefinite" style="animation-play-state: running; animation-delay: 0s;"></animate>
  </rect>
</g></svg>